<?xml version="1.0" encoding="utf-8"?>
<!-- Generator: Adobe Illustrator 23.0.1, SVG Export Plug-In . SVG Version: 6.00 Build 0)  -->
<svg version="1.1" id="Layer_1" xmlns="http://www.w3.org/2000/svg" xmlns:xlink="http://www.w3.org/1999/xlink" x="0px" y="0px"
	 viewBox="0 0 100 75" style="enable-background:new 0 0 100 75;" xml:space="preserve">
<title>Government</title>
<image style="overflow:visible;enable-background:new    ;" width="418" height="314" xlink:href="../PNG/Bills_Payment_SSS.png"  transform="matrix(0.2374 0 0 0.2374 0.5276 0.4633)">
</image>
</svg>
