<?xml version="1.0" encoding="utf-8"?>
<!-- Generator: Adobe Illustrator 23.0.1, SVG Export Plug-In . SVG Version: 6.00 Build 0)  -->
<svg version="1.1" id="Layer_1" xmlns="http://www.w3.org/2000/svg" xmlns:xlink="http://www.w3.org/1999/xlink" x="0px" y="0px"
	 viewBox="0 0 80.5 87.5" style="enable-background:new 0 0 80.5 87.5;" xml:space="preserve">
<title>Government</title>
<image style="overflow:visible;enable-background:new    ;" width="337" height="365" xlink:href="../PNG/Bills_Payment_PagIbig.png"  transform="matrix(0.2371 0 0 0.2371 4.157008e-02 0.4616)">
</image>
</svg>
